[gd_scene load_steps=19 format=2]

[ext_resource path="res://Scripts/Tutorial.gd" type="Script" id=1]
[ext_resource path="res://Tilesets/Floors.tres" type="TileSet" id=2]
[ext_resource path="res://Scenes/Door.tscn" type="PackedScene" id=3]
[ext_resource path="res://Tilesets/Walls.tres" type="TileSet" id=4]
[ext_resource path="res://Scenes/Characters/Player.tscn" type="PackedScene" id=5]
[ext_resource path="res://Scenes/VisionMode.tscn" type="PackedScene" id=6]
[ext_resource path="res://Scenes/Exit.tscn" type="PackedScene" id=7]
[ext_resource path="res://Tilesets/Furniture.tres" type="TileSet" id=8]
[ext_resource path="res://Scenes/Briefcase.tscn" type="PackedScene" id=9]
[ext_resource path="res://Lightmaps/radial.png" type="Texture" id=10]
[ext_resource path="res://Scripts/Light2D.gd" type="Script" id=11]
[ext_resource path="res://Lightmaps/torchmap.png" type="Texture" id=12]
[ext_resource path="res://GFX/Interface/PNG/crossair_blueOutline.png" type="Texture" id=13]
[ext_resource path="res://SFX/message.wav" type="AudioStream" id=14]
[ext_resource path="res://Scenes/TutorialGui.tscn" type="PackedScene" id=15]

[sub_resource type="RectangleShape2D" id=1]
extents = Vector2( 136, 72 )

[sub_resource type="RectangleShape2D" id=2]
extents = Vector2( 56, 32 )

[sub_resource type="RectangleShape2D" id=3]
extents = Vector2( 32, 32 )

[node name="Tutorial" type="Node2D"]
script = ExtResource( 1 )

[node name="Floors" type="TileMap" parent="."]
tile_set = ExtResource( 2 )
collision_layer = 2
format = 1
tile_data = PoolIntArray( 65537, 2, 0, 65538, 2, 0, 65539, 2, 0, 65540, 2, 0, 65541, 2, 0, 65542, 2, 0, 65543, 2, 0, 65544, 2, 0, 65545, 2, 0, 65546, 2, 0, 65547, 2, 0, 131073, 2, 0, 131074, 2, 0, 131075, 2, 0, 131076, 2, 4, 131077, 2, 0, 131078, 2, 2, 131079, 2, 0, 131080, 2, 0, 131081, 2, 0, 131082, 2, 2, 131083, 2, 0, 131084, 0, 0, 131085, 0, 0, 131086, 0, 0, 131087, 0, 0, 196609, 2, 0, 196610, 2, 0, 196611, 2, 0, 196612, 2, 0, 196613, 2, 0, 196614, 2, 0, 196615, 2, 0, 196616, 2, 0, 196617, 2, 0, 196618, 2, 0, 196619, 2, 0, 196623, 0, 0, 196624, 0, 0, 262145, 2, 0, 262146, 2, 0, 262147, 2, 4, 262148, 2, 2, 262149, 2, 0, 262150, 2, 0, 262151, 1, 0, 262152, 1, 0, 262153, 1, 0, 262155, 0, 0, 262156, 0, 0, 262157, 0, 0, 262160, 0, 0, 327681, 2, 0, 327682, 2, 0, 327683, 2, 0, 327684, 2, 4, 327685, 2, 4, 327686, 2, 0, 327687, 1, 0, 327688, 1, 0, 327689, 1, 0, 327691, 0, 0, 327693, 0, 0, 327694, 0, 0, 327695, 0, 0, 327696, 0, 0, 393217, 2, 0, 393218, 2, 0, 393219, 2, 2, 393220, 2, 2, 393221, 2, 2, 393222, 2, 0, 393223, 1, 0, 393224, 1, 0, 393225, 0, 0, 393227, 0, 0, 458753, 2, 0, 458754, 2, 0, 458755, 2, 0, 458756, 2, 0, 458757, 2, 0, 458758, 2, 0, 458759, 1, 0, 458760, 1, 0, 458761, 0, 0, 458762, 0, 0, 458763, 0, 0, 458764, 0, 0, 458765, 0, 0, 458766, 0, 0, 458767, 0, 0, 458768, 0, 0, 458769, 0, 0, 524295, 1, 0, 524296, 1, 0, 524297, 0, 0, 524298, 0, 0, 524299, 0, 0, 524300, 0, 0, 524301, 0, 0, 524302, 0, 0, 524303, 0, 0, 524304, 0, 0, 524305, 0, 0 )

[node name="Door" parent="." instance=ExtResource( 3 )]
position = Vector2( 736, 160 )
rotation = 1.5708

[node name="Door2" parent="." instance=ExtResource( 3 )]
position = Vector2( 608, 480 )
rotation = 1.5708

[node name="Walls" type="TileMap" parent="."]
tile_set = ExtResource( 4 )
collision_layer = 2
format = 1
tile_data = PoolIntArray( 0, 0, 0, 1, 0, 2, 2, 0, 2, 3, 0, 2, 4, 0, 2, 5, 0, 2, 6, 0, 3, 7, 0, 2, 8, 0, 2, 9, 0, 2, 10, 0, 2, 11, 0, 1, 65536, 0, 65538, 65542, 0, 6, 65547, 0, 65536, 65548, 0, 2, 65549, 0, 2, 65550, 0, 2, 65551, 0, 2, 65552, 0, 1, 131072, 0, 65538, 131088, 0, 65536, 131089, 0, 1, 196608, 0, 65538, 196614, 0, 0, 196615, 0, 2, 196616, 0, 2, 196617, 0, 2, 196618, 0, 3, 196619, 0, 2, 196620, 0, 2, 196621, 0, 2, 196622, 0, 1, 196625, 0, 65538, 262144, 0, 65538, 262150, 0, 65538, 262154, 0, 65538, 262158, 0, 65536, 262159, 0, 5, 262161, 0, 65538, 327680, 0, 65538, 327686, 0, 65538, 327690, 0, 65538, 327692, 0, 65541, 327697, 0, 65538, 393216, 0, 65538, 393222, 0, 65538, 393225, 0, 65542, 393226, 0, 65537, 393228, 0, 65536, 393229, 0, 2, 393230, 0, 2, 393231, 0, 2, 393232, 0, 2, 393233, 0, 4, 393234, 0, 1, 458752, 0, 65538, 458758, 0, 65538, 458770, 0, 65538, 524288, 0, 65536, 524289, 0, 2, 524290, 0, 2, 524291, 0, 2, 524292, 0, 2, 524293, 0, 2, 524294, 0, 65540, 524297, 0, 65541, 524306, 0, 65538, 589830, 0, 65536, 589831, 0, 2, 589832, 0, 2, 589833, 0, 4, 589834, 0, 2, 589835, 0, 2, 589836, 0, 2, 589837, 0, 2, 589838, 0, 2, 589839, 0, 2, 589840, 0, 2, 589841, 0, 2, 589842, 0, 65537 )

[node name="Player" parent="." instance=ExtResource( 5 )]
editor/display_folded = true
position = Vector2( 176, 200 )

[node name="Camera2D" type="Camera2D" parent="Player"]
current = true

[node name="VisionMode" parent="." instance=ExtResource( 6 )]

[node name="Exit" parent="." instance=ExtResource( 7 )]
margin_left = 896.0
margin_top = 448.0
margin_right = 944.0
margin_bottom = 494.0

[node name="Furniture" type="TileMap" parent="."]
tile_set = ExtResource( 8 )
collision_layer = 2
format = 1
tile_data = PoolIntArray( 65546, 4, 0, 262151, 1073741825, 0, 327682, 2, 0, 327687, 6, 0, 393223, 1, 0, 458753, 4, 0, 458754, 0, 0, 458757, 4, 0, 524298, 4, 0 )

[node name="Briefcase" parent="." instance=ExtResource( 9 )]
position = Vector2( 576, 320 )

[node name="Light2D" type="Light2D" parent="." groups=[
"npc",
]]
position = Vector2( 248, 176 )
texture = ExtResource( 10 )
shadow_enabled = true
script = ExtResource( 11 )

[node name="Light2D2" type="Light2D" parent="." groups=[
"npc",
]]
position = Vector2( 448, 71.8499 )
rotation = 0.306177
texture = ExtResource( 12 )
offset = Vector2( 160, 0 )
texture_scale = 0.5
shadow_enabled = true
script = ExtResource( 11 )

[node name="ObjectiveMarkers" type="Node2D" parent="."]
editor/display_folded = true

[node name="MoveObjective" type="Position2D" parent="ObjectiveMarkers"]
position = Vector2( 503.4, 155.95 )

[node name="DoorObjective" type="Position2D" parent="ObjectiveMarkers"]
position = Vector2( 736, 160 )

[node name="NightvisionObjective" type="Position2D" parent="ObjectiveMarkers"]
position = Vector2( 736, 408 )

[node name="LootObjective" type="Position2D" parent="ObjectiveMarkers"]
position = Vector2( 568, 312 )

[node name="ExitObjective" type="Position2D" parent="ObjectiveMarkers"]
position = Vector2( 884.799, 510.95 )

[node name="ObjectivePointer" type="Sprite" parent="."]
editor/display_folded = true
position = Vector2( 288, 200 )
texture = ExtResource( 13 )
__meta__ = {
"_edit_group_": true
}

[node name="Light2D" type="Light2D" parent="ObjectivePointer"]
texture = ExtResource( 13 )

[node name="ObjectiveAreas" type="Node2D" parent="."]
editor/display_folded = true

[node name="ObjectiveMove" type="Area2D" parent="ObjectiveAreas"]
position = Vector2( 568, 136 )
collision_layer = 0

[node name="CollisionShape2D" type="CollisionShape2D" parent="ObjectiveAreas/ObjectiveMove"]
position = Vector2( 8, -8 )
shape = SubResource( 1 )

[node name="ObjectiveDoor" type="Area2D" parent="ObjectiveAreas"]
position = Vector2( 760, 160 )
collision_layer = 0

[node name="CollisionShape2D" type="CollisionShape2D" parent="ObjectiveAreas/ObjectiveDoor"]
position = Vector2( 48, 0 )
shape = SubResource( 2 )

[node name="ObjectiveVision" type="Area2D" parent="ObjectiveAreas"]
position = Vector2( 736, 416 )
collision_layer = 0

[node name="CollisionShape2D" type="CollisionShape2D" parent="ObjectiveAreas/ObjectiveVision"]
shape = SubResource( 3 )

[node name="AudioStreamPlayer" type="AudioStreamPlayer" parent="."]
stream = ExtResource( 14 )

[node name="Tween" type="Tween" parent="."]

[node name="TutorialGui" parent="." instance=ExtResource( 15 )]
[connection signal="body_entered" from="Briefcase" to="." method="_on_Briefcase_body_entered"]
[connection signal="body_entered" from="ObjectiveAreas/ObjectiveMove" to="." method="_on_ObjectiveMove_body_entered"]
[connection signal="body_entered" from="ObjectiveAreas/ObjectiveDoor" to="." method="_on_ObjectiveDoor_body_entered"]
[connection signal="body_entered" from="ObjectiveAreas/ObjectiveVision" to="." method="_on_ObjectiveVision_body_entered"]
