[gd_scene load_steps=4 format=2]

[ext_resource path="res://Scripts/Cloud.gd" type="Script" id=1]
[ext_resource path="res://GFX/Enemies/cloud.png" type="Texture" id=2]

[sub_resource type="Animation" id=1]
resource_name = "float"
length = 20.0
loop = true
step = 2.0
tracks/0/type = "value"
tracks/0/path = NodePath(".:position")
tracks/0/interp = 1
tracks/0/loop_wrap = true
tracks/0/imported = false
tracks/0/enabled = true
tracks/0/keys = {
"times": PoolRealArray( 0, 4, 6, 14, 16 ),
"transitions": PoolRealArray( 1, 1, 1, 1, 1 ),
"update": 0,
"values": [ Vector2( 0, 0 ), Vector2( -800, 0 ), Vector2( -800, 0 ), Vector2( 800, 0 ), Vector2( 800, 0 ) ]
}

[node name="Cloud" type="Node2D"]
script = ExtResource( 1 )

[node name="Sprite" type="Sprite" parent="."]
texture = ExtResource( 2 )

[node name="AnimationPlayer" type="AnimationPlayer" parent="Sprite"]
autoplay = "float"
anims/float = SubResource( 1 )

[node name="RayCast2D" type="RayCast2D" parent="Sprite"]
enabled = true
cast_to = Vector2( 0, 3000 )

[node name="Timer" type="Timer" parent="Sprite"]
wait_time = 2.0

[connection signal="timeout" from="Sprite/Timer" to="." method="_on_Timer_timeout"]
