[gd_scene load_steps=3 format=2]

[ext_resource path="res://Scenes/SpikesTop.tscn" type="PackedScene" id=1]
[ext_resource path="res://GFX/Environment/spikes_bottom.png" type="Texture" id=2]

[node name="SpikesBottom" instance=ExtResource( 1 )]

[node name="Sprite" parent="." index="0"]
texture = ExtResource( 2 )

[node name="CollisionPolygon2D" parent="." index="1"]
polygon = PoolVector2Array( -33.9406, 25.1788, -47.3801, -26.7346, 46.6965, -26.7346, 32.73, 25.1788 )

