[gd_resource type="OccluderPolygon2D" format=2]

[resource]
cull_mode = 1
polygon = PoolVector2Array( -12.5871, -7.41898, -11.8912, -15.3058, -7.48391, -20.9889, -0.640953, -22.0327, 5.62209, -19.7131, 8.40566, -15.3058, 8.44177, -6.76333, 8.6307, 7.50138, 8.72517, 12.6027, 6.17453, 18.7431, 1.54558, 22.0495, -5.16166, 21.955, -10.1685, 19.5933, -12.7191, 11.2801, -14.1362, 4.00605, -14.0417, -2.41779 )

