[gd_scene load_steps=7 format=2]

[ext_resource path="res://Scripts/Computer.gd" type="Script" id=1]
[ext_resource path="res://GFX/PNG/Tiles/tile_537.png" type="Texture" id=2]
[ext_resource path="res://GFX/PNG/Tiles/tile_519.png" type="Texture" id=3]
[ext_resource path="res://Scenes/ComputerPopup.tscn" type="PackedScene" id=4]
[ext_resource path="res://Scenes/CustomTheme.tres" type="Theme" id=5]

[sub_resource type="RectangleShape2D" id=1]
extents = Vector2( 48, 60 )

[node name="Computer" type="Area2D"]
collision_layer = 2
script = ExtResource( 1 )

[node name="Sprite" type="Sprite" parent="."]
rotation = 1.5708
texture = ExtResource( 2 )

[node name="CollisionShape2D" type="CollisionShape2D" parent="."]
position = Vector2( 32, 0 )
shape = SubResource( 1 )

[node name="Light2D" type="Light2D" parent="."]
rotation = 1.5708
texture = ExtResource( 3 )
offset = Vector2( 0, -32 )
color = Color( 0.713726, 0.729412, 0.952941, 1 )

[node name="CanvasLayer" type="CanvasLayer" parent="."]

[node name="ComputerPopup" parent="CanvasLayer" instance=ExtResource( 4 )]

[node name="Label" type="Label" parent="." groups=[
"labels",
]]
margin_left = -32.0
margin_top = -8.0
margin_right = 20.0
margin_bottom = 15.0
theme = ExtResource( 5 )
text = "Test"

[connection signal="body_entered" from="." to="." method="_on_Computer_body_entered"]
[connection signal="body_exited" from="." to="." method="_on_Computer_body_exited"]
