[gd_scene load_steps=2 format=2]

[ext_resource path="res://Scripts/VisionMode.gd" type="Script" id=1]

[node name="VisionMode" type="CanvasModulate"]
editor/display_folded = true
visible = false
color = Color( 0.0196078, 0.0313726, 0.184314, 1 )
script = ExtResource( 1 )

[node name="AudioStreamPlayer" type="AudioStreamPlayer" parent="."]
